<?xml version="1.0" encoding="utf-8"?>
<!-- Generator: Adobe Illustrator 18.0.0, SVG Export Plug-In . SVG Version: 6.00 Build 0)  -->
<!DOCTYPE svg PUBLIC "-//W3C//DTD SVG 1.1//EN" "http://www.w3.org/Graphics/SVG/1.1/DTD/svg11.dtd">
<svg version="1.1" id="Layer_1" xmlns="http://www.w3.org/2000/svg" xmlns:xlink="http://www.w3.org/1999/xlink" x="0px" y="0px"
	 viewBox="0 0 200 200" enable-background="new 0 0 200 200" xml:space="preserve">
<path d="M131.2,38.6c-2.5-2.5-6.5-2.5-9.1,0c-2.5,2.5-2.5,6.5,0,9l46,46H16.4c-3.5,0-6.4,2.8-6.4,6.4s2.8,6.4,6.4,6.4h151.8
	l-46,45.9c-2.5,2.5-2.5,6.6,0,9.1c2.5,2.5,6.6,2.5,9.1,0l56.9-56.9c2.5-2.5,2.5-6.5,0-9L131.2,38.6z"/>
</svg>
