<?xml version="1.0" encoding="utf-8"?>
<!-- Generator: Adobe Illustrator 18.0.0, SVG Export Plug-In . SVG Version: 6.00 Build 0)  -->
<!DOCTYPE svg PUBLIC "-//W3C//DTD SVG 1.1//EN" "http://www.w3.org/Graphics/SVG/1.1/DTD/svg11.dtd">
<svg version="1.1" id="Layer_1" xmlns="http://www.w3.org/2000/svg" xmlns:xlink="http://www.w3.org/1999/xlink" x="0px" y="0px"
	 viewBox="0 0 200 100" enable-background="new 0 0 200 100" xml:space="preserve">
<path fill-rule="evenodd" clip-rule="evenodd" fill="#009548" d="M106.8,71.5l31.8-55.3L171,71.7c-11,2-21,2.8-30.6,2.8
	C129.1,74.6,118.2,73.4,106.8,71.5z"/>
<path fill-rule="evenodd" clip-rule="evenodd" fill="#FFFFFF" d="M128.3,65.6c-1.6,0-2.9-0.2-4.1-0.5c-1.2-0.3-2.3-0.6-3.3-1.1v-4.8
	h0.5c1,0.9,2.1,1.5,3.3,2c1.3,0.5,2.5,0.7,3.6,0.7c0.3,0,0.7-0.1,1.2-0.1c0.5-0.1,0.9-0.2,1.1-0.4c0.4-0.1,0.6-0.4,0.9-0.6
	c0.2-0.3,0.4-0.6,0.4-1.1c0-0.5-0.2-0.9-0.6-1.2c-0.4-0.4-0.9-0.6-1.5-0.7c-0.7-0.2-1.4-0.4-2.2-0.6c-0.9-0.1-1.6-0.4-2.3-0.6
	c-1.6-0.6-2.7-1.3-3.4-2.3c-0.6-0.9-1-2.1-1-3.6c0-1.9,0.8-3.5,2.4-4.7c1.6-1.1,3.7-1.8,6.1-1.8c1.2,0,2.4,0.1,3.6,0.4
	c1.2,0.3,2.3,0.6,3.3,1.1v4.7H136c-0.8-0.6-1.7-1.2-2.8-1.7c-1.1-0.4-2.2-0.6-3.3-0.6c-0.5,0-0.9,0.1-1.2,0.1
	c-0.4,0.1-0.8,0.2-1.1,0.4c-0.4,0.1-0.6,0.4-0.9,0.6c-0.2,0.3-0.4,0.6-0.4,0.9c0,0.6,0.2,0.9,0.6,1.3c0.4,0.3,1.1,0.6,2.1,0.8
	c0.7,0.2,1.4,0.4,2,0.5c0.6,0.1,1.4,0.4,2.1,0.6c1.4,0.6,2.5,1.2,3.2,2.1c0.7,0.9,1,2,1,3.4c0,2.1-0.8,3.7-2.3,4.9
	C133.2,65,131.1,65.6,128.3,65.6z M128.3,65.6L128.3,65.6L128.3,65.6z M146.2,65.6c-1.6,0-2.9-0.2-4.2-0.5c-1.1-0.3-2.3-0.6-3.3-1.1
	v-4.8h0.5c1,0.9,2.1,1.5,3.3,2c1.3,0.5,2.5,0.7,3.6,0.7c0.3,0,0.7-0.1,1.2-0.1c0.4-0.1,0.9-0.2,1.1-0.4c0.4-0.1,0.6-0.4,0.9-0.6
	c0.2-0.3,0.4-0.6,0.4-1.1c0-0.5-0.2-0.9-0.6-1.2c-0.4-0.4-0.9-0.6-1.4-0.7c-0.7-0.2-1.4-0.4-2.2-0.6c-0.9-0.1-1.6-0.4-2.3-0.6
	c-1.6-0.6-2.7-1.3-3.4-2.3c-0.6-0.9-1-2.1-1-3.6c0-1.9,0.8-3.5,2.4-4.7c1.6-1.1,3.6-1.8,6.1-1.8c1.2,0,2.4,0.1,3.6,0.4
	c1.2,0.3,2.3,0.6,3.3,1.1v4.7h-0.5c-0.7-0.6-1.6-1.2-2.8-1.7c-1.1-0.4-2.2-0.6-3.3-0.6c-0.5,0-0.9,0.1-1.3,0.1
	c-0.4,0.1-0.7,0.2-1.1,0.4c-0.3,0.1-0.6,0.4-0.8,0.6c-0.2,0.3-0.4,0.6-0.4,0.9c0,0.6,0.2,0.9,0.6,1.3c0.4,0.3,1.1,0.6,2.1,0.8
	c0.7,0.2,1.4,0.4,2,0.5s1.4,0.4,2.1,0.6c1.4,0.6,2.5,1.2,3.2,2.1c0.6,0.9,1,2,1,3.4c0,2.1-0.8,3.7-2.4,4.9
	C151.1,65,148.9,65.6,146.2,65.6z"/>
<path fill-rule="evenodd" clip-rule="evenodd" fill="none" stroke="#009548" stroke-width="0.2265" stroke-miterlimit="7.6613" d="
	M128.3,65.6c-1.6,0-2.9-0.2-4.1-0.5c-1.2-0.3-2.3-0.6-3.3-1.1v-4.8h0.5c1,0.9,2.1,1.5,3.3,2c1.3,0.5,2.5,0.7,3.6,0.7
	c0.3,0,0.7-0.1,1.2-0.1c0.5-0.1,0.9-0.2,1.1-0.4c0.4-0.1,0.6-0.4,0.9-0.6c0.2-0.3,0.4-0.6,0.4-1.1c0-0.5-0.2-0.9-0.6-1.2
	c-0.4-0.4-0.9-0.6-1.5-0.7c-0.7-0.2-1.4-0.4-2.2-0.6c-0.9-0.1-1.6-0.4-2.3-0.6c-1.6-0.6-2.7-1.3-3.4-2.3c-0.6-0.9-1-2.1-1-3.6
	c0-1.9,0.8-3.5,2.4-4.7c1.6-1.1,3.7-1.8,6.1-1.8c1.2,0,2.4,0.1,3.6,0.4c1.2,0.3,2.3,0.6,3.3,1.1v4.7H136c-0.8-0.6-1.7-1.2-2.8-1.7
	c-1.1-0.4-2.2-0.6-3.3-0.6c-0.5,0-0.9,0.1-1.2,0.1c-0.4,0.1-0.8,0.2-1.1,0.4c-0.4,0.1-0.6,0.4-0.9,0.6c-0.2,0.3-0.4,0.6-0.4,0.9
	c0,0.6,0.2,0.9,0.6,1.3c0.4,0.3,1.1,0.6,2.1,0.8c0.7,0.2,1.4,0.4,2,0.5c0.6,0.1,1.4,0.4,2.1,0.6c1.4,0.6,2.5,1.2,3.2,2.1
	c0.7,0.9,1,2,1,3.4c0,2.1-0.8,3.7-2.3,4.9C133.2,65,131.1,65.6,128.3,65.6z"/>
<path fill-rule="evenodd" clip-rule="evenodd" fill="none" stroke="#009548" stroke-width="0.2265" stroke-miterlimit="7.6613" d="
	M128.3,65.6"/>
<path fill-rule="evenodd" clip-rule="evenodd" fill="none" stroke="#009548" stroke-width="0.2265" stroke-miterlimit="7.6613" d="
	M146.2,65.6c-1.6,0-2.9-0.2-4.2-0.5c-1.1-0.3-2.3-0.6-3.3-1.1v-4.8h0.5c1,0.9,2.1,1.5,3.3,2c1.3,0.5,2.5,0.7,3.6,0.7
	c0.3,0,0.7-0.1,1.2-0.1c0.4-0.1,0.9-0.2,1.1-0.4c0.4-0.1,0.6-0.4,0.9-0.6c0.2-0.3,0.4-0.6,0.4-1.1c0-0.5-0.2-0.9-0.6-1.2
	c-0.4-0.4-0.9-0.6-1.4-0.7c-0.7-0.2-1.4-0.4-2.2-0.6c-0.9-0.1-1.6-0.4-2.3-0.6c-1.6-0.6-2.7-1.3-3.4-2.3c-0.6-0.9-1-2.1-1-3.6
	c0-1.9,0.8-3.5,2.4-4.7c1.6-1.1,3.6-1.8,6.1-1.8c1.2,0,2.4,0.1,3.6,0.4c1.2,0.3,2.3,0.6,3.3,1.1v4.7h-0.5c-0.7-0.6-1.6-1.2-2.8-1.7
	c-1.1-0.4-2.2-0.6-3.3-0.6c-0.5,0-0.9,0.1-1.3,0.1c-0.4,0.1-0.7,0.2-1.1,0.4c-0.3,0.1-0.6,0.4-0.8,0.6c-0.2,0.3-0.4,0.6-0.4,0.9
	c0,0.6,0.2,0.9,0.6,1.3c0.4,0.3,1.1,0.6,2.1,0.8c0.7,0.2,1.4,0.4,2,0.5s1.4,0.4,2.1,0.6c1.4,0.6,2.5,1.2,3.2,2.1c0.6,0.9,1,2,1,3.4
	c0,2.1-0.8,3.7-2.4,4.9C151.1,65,148.9,65.6,146.2,65.6z"/>
<path fill-rule="evenodd" clip-rule="evenodd" fill="#0067AF" d="M13.7,82.8c-1.6,0.4-3.2-0.6-3.6-2.1c-0.4-1.6,0.5-3.1,2.1-3.6
	c15-4.1,29.4-6.3,43.8-7c14.3-0.6,28.5,0.4,43.3,3.1c14.2,2.6,27.4,4.3,41.3,4.3s28.5-1.8,45.9-6.3c1.6-0.4,3.2,0.6,3.6,2.1
	c0.4,1.6-0.5,3.2-2.1,3.6c-17.8,4.6-32.9,6.4-47.3,6.4c-14.4,0-27.8-1.8-42.3-4.4c-14.3-2.6-28.1-3.6-42-2.9
	C42.3,76.7,28.3,78.9,13.7,82.8z"/>
<path fill-rule="evenodd" clip-rule="evenodd" fill="#050303" d="M16.3,66l6.8-20.2h5.5L35.4,66h-5.2L29,61.8h-6.3L21.3,66H16.3z
	 M16.3,66L16.3,66L16.3,66z M27.9,58.1l-2.1-6.7l-2.1,6.7H27.9z M27.9,58.1L27.9,58.1L27.9,58.1z M50.9,66H37.4V45.8h5.1v16.3h8.4
	V66z M50.9,66L50.9,66L50.9,66z M68.9,52.1c0,0.9-0.1,1.8-0.5,2.7c-0.3,0.9-0.7,1.6-1.3,2.1c-0.4,0.4-0.7,0.7-1.1,1
	c-0.4,0.3-0.9,0.6-1.4,0.7c-0.5,0.2-1,0.4-1.6,0.5c-0.6,0.1-1.2,0.2-1.9,0.2h-2.7V66h-5.1V45.8h7.8c1.2,0,2.2,0.1,3.1,0.3
	c0.9,0.2,1.6,0.6,2.3,1c0.8,0.5,1.4,1.2,1.8,2.1C68.7,50,68.9,51,68.9,52.1z M68.9,52.1L68.9,52.1L68.9,52.1z M63.7,52.2
	c0-0.6-0.1-1.1-0.4-1.5c-0.3-0.4-0.6-0.6-1-0.9c-0.5-0.1-0.9-0.3-1.4-0.4c-0.4,0-1,0-1.8,0h-0.7v6h0.4c0.5,0,0.9-0.1,1.4-0.1
	c0.4,0,0.9,0,1.1-0.1c0.3-0.1,0.6-0.1,0.9-0.3c0.3-0.1,0.5-0.3,0.7-0.4c0.4-0.4,0.6-0.6,0.7-1.1C63.6,53.3,63.7,52.9,63.7,52.2z
	 M63.7,52.2L63.7,52.2L63.7,52.2z M81.7,66H70.8v-3.6h2.9V49.3h-2.9v-3.5h10.9v3.5h-2.9v13.2h2.9V66z M81.7,66L81.7,66L81.7,66z
	 M102.4,66h-4.9l-7.8-14.1V66H85V45.8h6.3l6.5,11.5V45.8h4.6V66z"/>
<polygon fill-rule="evenodd" clip-rule="evenodd" fill="#050303" points="105.9,55.1 105.9,45.8 112.3,45.8 112.3,47.5 108.3,47.5 
	108.3,49.2 112,49.2 112,51 108.3,51 108.3,53.3 112.3,53.3 112.3,55.1 "/>
<path fill-rule="evenodd" clip-rule="evenodd" fill="#050303" d="M46.5,81.1l-1-0.1c0.1-0.1,0.1-0.3,0.2-0.4c0-0.1,0.1-0.1,0.3-0.2
	c0.1-0.1,0.2-0.1,0.4-0.1c0.1-0.1,0.4-0.1,0.5-0.1c0.3,0,0.6,0,0.7,0.1c0.2,0,0.4,0.1,0.5,0.1c0.1,0.1,0.1,0.2,0.2,0.4
	c0,0.1,0,0.3,0,0.4v1.2c0,0.1,0.1,0.2,0.1,0.3c0,0.1,0.1,0.1,0.1,0.2h-0.9c-0.1-0.1-0.1-0.1-0.1-0.1c0,0,0-0.1,0-0.1
	c-0.1,0.1-0.3,0.2-0.4,0.3c-0.1,0.1-0.4,0.1-0.6,0.1c-0.4,0-0.6-0.1-0.7-0.2c-0.2-0.1-0.3-0.3-0.3-0.5s0.1-0.4,0.2-0.5
	c0.1-0.1,0.3-0.2,0.6-0.3c0.4-0.1,0.6-0.1,0.7-0.1c0.1-0.1,0.2-0.1,0.4-0.1c0-0.1-0.1-0.2-0.1-0.3c-0.1,0-0.1-0.1-0.3-0.1
	c-0.1,0-0.3,0.1-0.4,0.1C46.5,80.8,46.5,80.9,46.5,81.1z M46.5,81.1L46.5,81.1L46.5,81.1z M47.3,81.6c-0.1,0-0.3,0.1-0.4,0.1
	c-0.2,0-0.4,0.1-0.4,0.1c0,0.1-0.1,0.1-0.1,0.1c0,0.1,0.1,0.2,0.1,0.3c0.1,0,0.1,0,0.3,0c0.1,0,0.2,0,0.3-0.1c0.1,0,0.1-0.1,0.2-0.2
	c0-0.1,0.1-0.1,0.1-0.3V81.6z"/>
<rect x="48.9" y="79.2" fill-rule="evenodd" clip-rule="evenodd" fill="#050303" width="1" height="3.6"/>
<path fill-rule="evenodd" clip-rule="evenodd" fill="#050303" d="M50.5,83.8v-3.6h0.9v0.4c0.1-0.1,0.2-0.3,0.3-0.4
	c0.1-0.1,0.4-0.1,0.5-0.1c0.4,0,0.6,0.1,0.9,0.4c0.1,0.3,0.3,0.6,0.3,1c0,0.4-0.1,0.8-0.4,1c-0.2,0.2-0.5,0.4-0.8,0.4
	c-0.1,0-0.3-0.1-0.4-0.1c-0.1-0.1-0.2-0.1-0.3-0.2v1.2H50.5z M50.5,83.8L50.5,83.8L50.5,83.8z M51.4,81.5c0,0.2,0.1,0.4,0.1,0.4
	c0.1,0.1,0.2,0.2,0.4,0.2c0.1,0,0.2-0.1,0.3-0.2c0.1-0.1,0.1-0.2,0.1-0.5c0-0.1,0-0.4-0.1-0.4c-0.1-0.1-0.2-0.1-0.3-0.1
	c-0.1,0-0.2,0.1-0.4,0.1C51.5,81.1,51.4,81.3,51.4,81.5z"/>
<path fill-rule="evenodd" clip-rule="evenodd" fill="#050303" d="M53.8,79.2h1.1v0.7h-1.1V79.2z M53.8,79.2L53.8,79.2L53.8,79.2z
	 M53.8,80.2h1.1v2.6h-1.1V80.2z"/>
<polygon fill-rule="evenodd" clip-rule="evenodd" fill="#050303" points="55.5,80.2 56.2,80.2 57.2,81.6 57.2,80.2 57.9,80.2 
	57.9,82.8 57.2,82.8 56.2,81.3 56.2,82.8 55.5,82.8 "/>
<path fill-rule="evenodd" clip-rule="evenodd" fill="#050303" d="M61.4,81.7h-1.9c0,0.2,0.1,0.3,0.1,0.4c0.1,0.1,0.3,0.2,0.4,0.2
	c0.1,0,0.1,0,0.2-0.1c0.1,0,0.1-0.1,0.2-0.2l1,0.1c-0.1,0.3-0.4,0.4-0.6,0.6c-0.2,0.1-0.5,0.1-0.9,0.1c-0.4,0-0.6-0.1-0.9-0.1
	c-0.2-0.1-0.4-0.2-0.5-0.4c-0.1-0.3-0.1-0.5-0.1-0.8c0-0.4,0.1-0.7,0.4-1c0.2-0.2,0.6-0.4,1.1-0.4c0.4,0,0.6,0.1,0.9,0.1
	c0.3,0.1,0.4,0.3,0.5,0.5C61.4,81,61.4,81.3,61.4,81.7L61.4,81.7z M61.4,81.7L61.4,81.7L61.4,81.7z M60.4,81.3
	c0-0.2-0.1-0.4-0.1-0.4c-0.1-0.1-0.2-0.1-0.3-0.1c-0.2,0-0.3,0.1-0.4,0.2c0,0.1-0.1,0.2-0.1,0.4H60.4z"/>
<path fill-rule="evenodd" clip-rule="evenodd" fill="#050303" d="M64.2,82.1l1-0.1c0.1,0.1,0.1,0.2,0.2,0.3c0.1,0,0.1,0.1,0.3,0.1
	c0.1,0,0.2-0.1,0.3-0.1c0.1,0,0.1-0.1,0.1-0.1c0-0.1,0-0.1-0.1-0.1c-0.1-0.1-0.2-0.1-0.4-0.1c-0.4-0.1-0.6-0.1-0.8-0.1
	c-0.1-0.1-0.2-0.1-0.3-0.3c-0.1-0.1-0.1-0.2-0.1-0.4c0-0.1,0-0.3,0.1-0.4c0.1-0.1,0.2-0.2,0.4-0.3c0.1-0.1,0.4-0.1,0.6-0.1
	c0.4,0,0.6,0,0.7,0.1c0.1,0,0.3,0.1,0.4,0.2c0.1,0.1,0.2,0.2,0.3,0.4L66,80.9c-0.1-0.1-0.1-0.1-0.1-0.2c-0.1-0.1-0.1-0.1-0.3-0.1
	c-0.1,0-0.2,0-0.3,0.1c0,0.1-0.1,0.1-0.1,0.1s0.1,0.1,0.1,0.1c0.1,0.1,0.2,0.1,0.4,0.1c0.3,0,0.6,0.1,0.7,0.1
	c0.1,0.1,0.3,0.1,0.4,0.3c0.1,0.1,0.1,0.2,0.1,0.4c0,0.2-0.1,0.4-0.1,0.5c-0.1,0.1-0.2,0.2-0.4,0.3c-0.2,0.1-0.4,0.1-0.8,0.1
	c-0.5,0-0.9-0.1-1-0.2C64.5,82.6,64.3,82.3,64.2,82.1z"/>
<path fill-rule="evenodd" clip-rule="evenodd" fill="#050303" d="M67.4,81.5c0-0.4,0.1-0.7,0.4-1c0.3-0.2,0.6-0.4,1.1-0.4
	c0.5,0,0.9,0.1,1.2,0.4c0.2,0.3,0.3,0.6,0.3,0.9s-0.1,0.7-0.4,1c-0.3,0.2-0.6,0.4-1.1,0.4c-0.4,0-0.8-0.1-1-0.3
	C67.5,82.3,67.4,81.9,67.4,81.5z M67.4,81.5L67.4,81.5L67.4,81.5z M68.3,81.5c0,0.2,0.1,0.4,0.1,0.5c0.1,0.1,0.2,0.2,0.4,0.2
	c0.1,0,0.3-0.1,0.4-0.2c0.1-0.1,0.1-0.3,0.1-0.5c0-0.2-0.1-0.4-0.1-0.5c-0.1-0.1-0.2-0.1-0.3-0.1c-0.2,0-0.3,0.1-0.4,0.1
	C68.4,81.1,68.3,81.3,68.3,81.5z"/>
<path fill-rule="evenodd" clip-rule="evenodd" fill="#050303" d="M73.5,82.8h-0.9v-0.4c-0.1,0.1-0.3,0.2-0.4,0.4
	c-0.1,0.1-0.4,0.1-0.6,0.1c-0.2,0-0.4-0.1-0.6-0.2c-0.2-0.2-0.3-0.4-0.3-0.8v-1.6h1v1.4c0,0.1,0.1,0.3,0.1,0.4
	c0.1,0.1,0.1,0.1,0.3,0.1c0.1,0,0.2-0.1,0.3-0.1c0.1-0.1,0.1-0.2,0.1-0.5v-1.2h1V82.8z"/>
<path fill-rule="evenodd" clip-rule="evenodd" fill="#050303" d="M74.1,82.8v-2.6h1.3c0.3,0,0.4,0,0.6,0c0.1,0.1,0.3,0.1,0.4,0.3
	c0.1,0.1,0.1,0.2,0.1,0.4c0,0.1,0,0.2-0.1,0.4c-0.1,0.1-0.1,0.1-0.2,0.3c-0.1,0-0.2,0-0.3,0.1c0.1,0,0.1,0.1,0.2,0.1
	c0,0,0.1,0.1,0.1,0.1c0.1,0.1,0.1,0.1,0.1,0.1l0.4,0.8h-0.9L75.3,82c-0.1-0.1-0.1-0.1-0.1-0.2c-0.1-0.1-0.1-0.1-0.2-0.1h-0.1v1.1
	H74.1z M74.1,82.8L74.1,82.8L74.1,82.8z M74.9,81.2h0.4c0,0,0.1,0,0.2,0c0.1,0,0.1-0.1,0.1-0.1c0.1,0,0.1-0.1,0.1-0.1
	c0-0.1,0-0.1-0.1-0.1c-0.1-0.1-0.1-0.1-0.3-0.1h-0.4V81.2z"/>
<path fill-rule="evenodd" clip-rule="evenodd" fill="#050303" d="M78.9,81.8l0.9,0.1c-0.1,0.2-0.1,0.4-0.2,0.6
	c-0.1,0.1-0.3,0.2-0.5,0.3c-0.2,0.1-0.4,0.1-0.7,0.1c-0.3,0-0.5,0-0.6-0.1c-0.2-0.1-0.4-0.1-0.5-0.2c-0.1-0.1-0.2-0.3-0.4-0.4
	c-0.1-0.1-0.1-0.4-0.1-0.6s0.1-0.4,0.1-0.6c0.1-0.1,0.1-0.3,0.3-0.4c0.1-0.1,0.2-0.2,0.4-0.3c0.2-0.1,0.4-0.1,0.7-0.1
	c0.4,0,0.8,0.1,1,0.2c0.2,0.1,0.4,0.4,0.4,0.7l-0.9,0.1c0-0.1-0.1-0.1-0.1-0.2c-0.1-0.1-0.2-0.1-0.3-0.1c-0.2,0-0.4,0.1-0.4,0.1
	c-0.1,0.1-0.1,0.3-0.1,0.6c0,0.1,0.1,0.4,0.1,0.4c0.1,0.1,0.2,0.2,0.4,0.2c0.1,0,0.3-0.1,0.4-0.1C78.8,82,78.8,81.9,78.9,81.8z"/>
<path fill-rule="evenodd" clip-rule="evenodd" fill="#050303" d="M83.1,81.7h-2c0,0.2,0.1,0.3,0.1,0.4c0.1,0.1,0.2,0.2,0.4,0.2
	c0.1,0,0.2,0,0.3-0.1c0.1,0,0.1-0.1,0.1-0.2l1,0.1c-0.1,0.3-0.3,0.4-0.5,0.6c-0.2,0.1-0.6,0.1-0.9,0.1s-0.6-0.1-0.9-0.1
	c-0.2-0.1-0.4-0.2-0.4-0.4c-0.1-0.3-0.2-0.5-0.2-0.8c0-0.4,0.1-0.7,0.4-1c0.3-0.2,0.6-0.4,1.1-0.4c0.4,0,0.7,0.1,0.9,0.1
	c0.2,0.1,0.4,0.3,0.5,0.5C83,81,83.1,81.3,83.1,81.7L83.1,81.7z M83.1,81.7L83.1,81.7L83.1,81.7z M82.1,81.3
	c-0.1-0.2-0.1-0.4-0.2-0.4c-0.1-0.1-0.1-0.1-0.3-0.1c-0.1,0-0.3,0.1-0.4,0.2c-0.1,0.1-0.1,0.2-0.1,0.4H82.1z"/>
</svg>
