<?xml version="1.0" encoding="utf-8"?>
<!-- Generator: Adobe Illustrator 18.0.0, SVG Export Plug-In . SVG Version: 6.00 Build 0)  -->
<!DOCTYPE svg PUBLIC "-//W3C//DTD SVG 1.1//EN" "http://www.w3.org/Graphics/SVG/1.1/DTD/svg11.dtd">
<svg version="1.1" id="Layer_1" xmlns="http://www.w3.org/2000/svg" xmlns:xlink="http://www.w3.org/1999/xlink" x="0px" y="0px"
	 viewBox="0 0 200 200" enable-background="new 0 0 200 200" xml:space="preserve">
<path d="M168,31.5H32c-12.1,0-22,9.9-22,22v93c0,12.1,9.9,22,22,22h136c12.1,0,22-9.9,22-22V53.6C190,41.4,180.2,31.5,168,31.5z
	 M180,146.5c0,6.6-5.4,12-12,12H32c-6.6,0-12-5.4-12-12V53.6c0-6.6,5.4-12,12-12h136c6.6,0,12,5.4,12,12L180,146.5L180,146.5z"/>
<path d="M123.5,98.8l44-39.5c2-1.9,2.2-5,0.4-7.1c-1.9-2-5-2.2-7.1-0.4l-60.7,54.5L88.2,95.8c0,0-0.1-0.1-0.1-0.1
	c-0.3-0.3-0.5-0.5-0.8-0.7L39.2,51.8c-2.1-1.9-5.3-1.7-7.1,0.4c-1.9,2.1-1.7,5.3,0.4,7.1L77,99.2l-44.4,41.5c-2,1.9-2.1,5.1-0.2,7.1
	c1,1,2.3,1.6,3.7,1.6c1.2,0,2.5-0.4,3.4-1.3l45-42.1l12.2,10.9c1,0.9,2.2,1.3,3.4,1.3c1.2,0,2.4-0.4,3.4-1.3l12.6-11.2l44.8,42.5
	c1,0.9,2.2,1.4,3.5,1.4c1.3,0,2.6-0.5,3.6-1.6c1.9-2,1.8-5.2-0.2-7.1L123.5,98.8z"/>
</svg>
