<?xml version="1.0" encoding="utf-8"?>
<!-- Generator: Adobe Illustrator 18.0.0, SVG Export Plug-In . SVG Version: 6.00 Build 0)  -->
<!DOCTYPE svg PUBLIC "-//W3C//DTD SVG 1.1//EN" "http://www.w3.org/Graphics/SVG/1.1/DTD/svg11.dtd">
<svg version="1.1" id="Layer_1" xmlns="http://www.w3.org/2000/svg" xmlns:xlink="http://www.w3.org/1999/xlink" x="0px" y="0px"
	 viewBox="0 0 200 200" enable-background="new 0 0 200 200" xml:space="preserve">
<path d="M79.7,25.2c-1-1.3-2-2.7-3-4c-1.1-1.3-2.1-2.7-3.1-3.8c-6.7-8.5-17.1-9.9-26-3.2L33.2,25.5c-5.5,4.3-9,9.9-10.4,16.7
	c-2.3,10.9-0.3,21.6,1.4,28.6c4,17.1,11.3,33.5,22.8,51.4c14.1,21.6,32,39.6,53.2,53.3c8.2,5.2,19.1,11.4,32,13.8
	c9.8,1.8,18.4-0.4,25.5-6.4c0.1-0.1,0.1-0.1,0.2-0.2c2.2-2.1,4.7-4,7.3-6c1.8-1.4,3.7-2.8,5.5-4.3c8.7-7.1,10-17.7,3.1-26.4
	L155.8,123l-0.3-0.4c-6.7-8.5-17.1-9.7-25.8-2.9l-13,10.2c-0.8-0.6-1.7-1.2-2.5-1.7c-1.3-0.8-2.5-1.6-3.4-2.4
	c-6.6-5.5-12.6-11.6-18.3-18.9c-3.1-4-6.2-8.3-9-12.9c-3.9-6.4-6.4-11.7-8-16.8c3.3-2.4,6.5-4.9,9.5-7.3c1.2-0.9,2.4-1.9,3.5-2.8
	c9-7.1,10.3-17.5,3.2-26.5l-9-11.5C81.7,27.8,80.7,26.5,79.7,25.2z M81.7,58.4c-1.2,0.9-2.4,1.9-3.6,2.8c-3.6,2.8-6.9,5.5-10.5,8
	c-0.1,0.1-0.2,0.1-0.2,0.2c-3.8,3-3.6,6.4-3.1,8.7c0,0.1,0,0.3,0.1,0.4c1.9,6.8,4.9,13.4,9.8,21.4c3.1,4.9,6.4,9.6,9.7,13.9
	c6.2,7.9,12.7,14.7,20,20.6c1.4,1.2,2.9,2.1,4.3,3.1c1.3,0.8,2.5,1.6,3.5,2.4c0.1,0.1,0.3,0.2,0.4,0.3c1.9,1.3,5.7,2.9,10.1-0.5
	l14.4-11.3c2.7-2.1,6.7-3.6,10.3,1l18.4,23.5c3.2,4,2.6,7.8-1.5,11.1c-1.6,1.3-3.3,2.6-5.1,4c-2.7,2.1-5.5,4.2-8.2,6.6
	c-4.6,3.9-9.6,5.1-16.2,3.9c-11-2-20.7-7.7-28.1-12.3c-19.9-12.9-36.8-29.7-49.9-50c-10.8-16.8-17.6-32.1-21.4-48
	c-2.3-9.7-2.7-17.1-1.4-23.8c0.9-4.2,3-7.6,6.4-10.2L54.2,23c3.9-3,7.7-2.5,10.8,1.3c2,2.5,4,4.9,5.9,7.5c1.1,1.3,2.1,2.7,3.1,4.1
	l9,11.5C86.4,51.7,86,55.1,81.7,58.4z"/>
</svg>
