<?xml version="1.0" encoding="utf-8"?>
<!-- Generator: Adobe Illustrator 18.0.0, SVG Export Plug-In . SVG Version: 6.00 Build 0)  -->
<!DOCTYPE svg PUBLIC "-//W3C//DTD SVG 1.1//EN" "http://www.w3.org/Graphics/SVG/1.1/DTD/svg11.dtd">
<svg version="1.1" id="Layer_1" xmlns="http://www.w3.org/2000/svg" xmlns:xlink="http://www.w3.org/1999/xlink" x="0px" y="0px"
	 viewBox="0 0 200 200" enable-background="new 0 0 200 200" xml:space="preserve">
<path d="M123.5,120.7c-0.2,0.1-0.4,0.2-0.6,0.3c10.5,5.1,27.3,10.6,43.6,10.9c4.5-7.9,8.5-16.1,11.3-24.9c-15,6.5-31.2,9.2-48.4,10
	C127.5,118.3,125.5,119.5,123.5,120.7z"/>
<path d="M139,110.2c15.4-2.5,32.4-8.6,41.9-14.7c2.4-10.3,3.7-21,3.7-32.1c0-4.6-0.2-9.2-0.7-13.8C174.7,73.7,159,94.6,139,110.2z"
	/>
<path d="M163.6,136c-18,0-35.2-3.4-51.1-9.6c-9.5-3.7-18.5-8.4-26.8-14c-0.1,0-0.2-0.1-0.2-0.1C51.9,89.5,28.7,52.5,24.5,10
	c-5.9,15.5-9.2,32.3-9.2,49.9c0,2.5,0.1,4.9,0.2,7.3c0.1,1.7,0.2,3.4,0.4,5.1c0.5,5.5,1.2,11.1,2.4,16.5c0.3,1.6,0.2,1,0.3,1.6
	c9.8,10.3,30,23,35.1,26.7c-5.2-1-24.4-10.3-32-15.3c4.4,14,10.9,27.8,19.8,39.6c6.3,2.7,18.6,8.7,23,10.2
	c-5.6-0.6-13.4-2.8-18.5-4.3c14.6,18.2,33.7,32.7,55.5,41.8c0.8,0.3,1.7,0.7,2.5,1c4.1-1.9,8.1-4,12-6.3
	c19.7-11.7,36.4-28.1,48.3-47.7C164.1,136,163.8,136,163.6,136z"/>
</svg>
